[
  {
    "serviceName": "Ded-99-110",
    "speed": [1, 10],
    "burst": 10,
    "type": "rent",
    "price": { "per": "1Mb", "price": 1100000 }
  },
  {
    "serviceName": "Ded-99-102",
    "speed": [10, 20],
    "burst": 10,
    "type": "rent",
    "price": { "per": "1Mb", "price": 1000000 }
  },
  {
    "serviceName": "Ded-99-203",
    "speed": [20, 30],
    "burst": 12,
    "type": "rent",
    "price": { "per": "1Mb", "price": 900000 }
  },
  {
    "serviceName": "Ded-99-304",
    "speed": [30, 40],
    "burst": 12,
    "type": "rent",
    "price": { "per": "1Mb", "price": 850000 }
  },
  {
    "serviceName": "Ded-99-408",
    "speed": [40, 80],
    "burst": 13,
    "type": "trust",
    "price": { "per": "1Mb", "price": 800000 }
  },
  {
    "serviceName": "Ded-99-800",
    "speed": [80, "max"],
    "burst": 14,
    "type": "trust",
    "price": { "per": "1Mb", "price": "negotiable" }
  }
]
