<?xml version="1.0" encoding="utf-8"?>
<!-- Generator: Adobe Illustrator 24.0.1, SVG Export Plug-In . SVG Version: 6.00 Build 0)  -->
<svg version="1.1" id="Layer_1" xmlns="http://www.w3.org/2000/svg" xmlns:xlink="http://www.w3.org/1999/xlink" x="0px" y="0px"
	 viewBox="0 0 512 512" style="enable-background:new 0 0 512 512;" xml:space="preserve">
<g>
	<path d="M281.3,360.9c4.1,0,7.5-3.4,7.5-7.5s-3.4-7.5-7.5-7.5h-50.6c-4.1,0-7.5,3.4-7.5,7.5s3.4,7.5,7.5,7.5H281.3z"/>
	<path d="M480.8,19.4h-96.5c-4.1,0-7.5,3.4-7.5,7.5s3.4,7.5,7.5,7.5h96.5c8.9,0,16.2,7.3,16.2,16.2v266H15v-266
		c0-8.9,7.3-16.2,16.2-16.2h318.1c4.1,0,7.5-3.4,7.5-7.5s-3.4-7.5-7.5-7.5H31.2C14,19.4,0,33.4,0,50.6v308.8
		c0,17.2,14,31.2,31.2,31.2H103c4.1,0,7.5-3.4,7.5-7.5s-3.4-7.5-7.5-7.5H31.2c-8.9,0-16.2-7.3-16.2-16.2v-27.8h482v27.8
		c0,8.9-7.3,16.2-16.2,16.2H137.7c-4.1,0-7.5,3.4-7.5,7.5s3.4,7.5,7.5,7.5h47.2l-7.5,43.4c-9.4,0.9-18.7,2-27.8,3.2
		c-23.8,3.2-41.8,23.8-41.8,47.9c0,2.2,1,4.4,2.7,5.8c1.7,1.4,4,2,6.2,1.6C158,484.3,206.1,480,256,480s98,4.3,139.3,12.5
		c0.5,0.1,1,0.1,1.5,0.1c1.7,0,3.4-0.6,4.8-1.7c1.7-1.4,2.7-3.6,2.7-5.8c0-24.1-18-44.7-41.8-47.9c-9.1-1.2-18.4-2.3-27.8-3.2
		l-7.5-43.4h153.7c17.2,0,31.2-14,31.2-31.2V50.6C512,33.4,498,19.4,480.8,19.4L480.8,19.4z M387.9,475.8
		C348.1,468.7,302.7,465,256,465c-46.7,0-92.1,3.7-131.9,10.8c3.6-12.4,14.2-22,27.5-23.8c32.9-4.5,68-6.7,104.4-6.7
		c36.4,0,71.6,2.3,104.4,6.7C373.7,453.9,384.3,463.5,387.9,475.8L387.9,475.8z M319.2,432.7c-20.5-1.5-41.6-2.3-63.2-2.3
		s-42.7,0.8-63.2,2.3l7.3-42.1h111.8L319.2,432.7z"/>
	<path d="M233.6,106.1h-25.9l-21.7-42.7c-1.3-2.5-3.9-4.1-6.7-4.1s-5.4,1.6-6.7,4.1l-35.4,69.6l-29.9-58.7c-1.3-2.5-3.9-4.1-6.7-4.1
		s-5.4,1.6-6.7,4.1l-16.2,31.8H52c-4.1,0-7.5,3.4-7.5,7.5s3.4,7.5,7.5,7.5h30.5c2.8,0,5.4-1.6,6.7-4.1l11.6-22.8l29.9,58.7
		c1.3,2.5,3.9,4.1,6.7,4.1s5.4-1.6,6.7-4.1l35.4-69.6l17.1,33.6c1.3,2.5,3.9,4.1,6.7,4.1h30.4c4.1,0,7.5-3.4,7.5-7.5
		S237.8,106.1,233.6,106.1z"/>
	<path d="M233.6,183.4H55c-4.1,0-7.5,3.4-7.5,7.5s3.4,7.5,7.5,7.5h178.7c4.1,0,7.5-3.4,7.5-7.5S237.8,183.4,233.6,183.4z"/>
	<path d="M55,243.4h163.6c4.1,0,7.5-3.4,7.5-7.5s-3.4-7.5-7.5-7.5H55c-4.1,0-7.5,3.4-7.5,7.5S50.8,243.4,55,243.4z"/>
	<path d="M55,288.4h178.7c4.1,0,7.5-3.4,7.5-7.5s-3.4-7.5-7.5-7.5H55c-4.1,0-7.5,3.4-7.5,7.5S50.8,288.4,55,288.4z"/>
	<path d="M458.7,183.5h-29.2c-4.1,0-7.5,3.4-7.5,7.5s3.4,7.5,7.5,7.5h29.2c4.1,0,7.5-3.4,7.5-7.5S462.9,183.5,458.7,183.5z"/>
	<path d="M394.4,183.5H280.1c-4.1,0-7.5,3.4-7.5,7.5s3.4,7.5,7.5,7.5h114.4c4.1,0,7.5-3.4,7.5-7.5S398.6,183.5,394.4,183.5z"/>
	<path d="M280.1,273.4c-4.1,0-7.5,3.4-7.5,7.5s3.4,7.5,7.5,7.5h163.6c4.1,0,7.5-3.4,7.5-7.5s-3.4-7.5-7.5-7.5H280.1z"/>
	<path d="M272.6,236c0,4.1,3.4,7.5,7.5,7.5h178.7c4.1,0,7.5-3.4,7.5-7.5s-3.4-7.5-7.5-7.5H280.1C275.9,228.5,272.6,231.8,272.6,236z
		"/>
	<path d="M466.2,86.6c0-4.1-3.4-7.5-7.5-7.5h-38c-4.1,0-7.5,3.4-7.5,7.5v62.9c0,4.1,3.4,7.5,7.5,7.5h38c4.1,0,7.5-3.4,7.5-7.5V86.6z
		 M451.2,142h-23V94.1h23V142z"/>
	<path d="M388.8,110.5h-38c-4.1,0-7.5,3.4-7.5,7.5v31.5c0,4.1,3.4,7.5,7.5,7.5h38c4.1,0,7.5-3.4,7.5-7.5V118
		C396.3,113.9,392.9,110.5,388.8,110.5z M381.3,142h-23v-16.5h23V142z"/>
	<path d="M281.3,157h38c4.1,0,7.5-3.4,7.5-7.5V66.8c0-4.1-3.4-7.5-7.5-7.5h-38c-4.1,0-7.5,3.4-7.5,7.5v82.7
		C273.8,153.6,277.2,157,281.3,157z M288.8,74.3h23V142h-23V74.3z"/>
</g>
</svg>
