<?xml version="1.0" encoding="utf-8"?>
<!-- Generator: Adobe Illustrator 24.0.1, SVG Export Plug-In . SVG Version: 6.00 Build 0)  -->
<svg version="1.1" id="Layer_1" xmlns="http://www.w3.org/2000/svg" xmlns:xlink="http://www.w3.org/1999/xlink" x="0px" y="0px"
	 viewBox="0 0 450 269" style="enable-background:new 0 0 450 269;" xml:space="preserve">
<style type="text/css">
	.st0{fill-rule:evenodd;clip-rule:evenodd;fill:#F0F0F1;}
	.st1{fill:#CAEEFC;}
	.st2{clip-path:url(#SVGID_2_);}
	.st3{fill:url(#SVGID_3_);}
	.st4{fill:url(#SVGID_4_);}
	.st5{fill:url(#SVGID_5_);}
	.st6{fill:#FFFFFF;}
	.st7{fill:#DBD9DB;}
	.st8{fill:#9FB578;}
	.st9{opacity:0.3;fill:#829657;enable-background:new    ;}
	.st10{fill:none;stroke:#829657;stroke-width:1.3807;stroke-miterlimit:10;}
	.st11{fill:#C1BFC1;}
	.st12{fill:#829657;}
	.st13{fill:#E2A881;}
	.st14{fill:none;stroke:#262426;stroke-width:1.3807;stroke-miterlimit:10;}
	.st15{fill:#F9CAA7;}
	.st16{fill:#262426;}
	.st17{fill:#939293;}
	.st18{opacity:0.5;fill:#6D6C6D;enable-background:new    ;}
	.st19{fill:#423F42;}
	.st20{fill:#F0B446;}
	.st21{fill:#6D6C6D;}
	.st22{fill:#896049;}
	.st23{fill:none;stroke:#7FC2D6;stroke-width:1.3807;stroke-linecap:round;stroke-miterlimit:10;}
	.st24{fill:none;stroke:#FFFFFF;stroke-width:1.3807;stroke-linecap:round;stroke-miterlimit:10;}
	.st25{font-family:'Arial-BoldMT';}
	.st26{font-size:7.5798px;}
	.st27{fill:none;stroke:#FFFFFF;stroke-width:1.3807;stroke-miterlimit:10;}
	.st28{fill:none;stroke:#FFFFFF;stroke-width:1.3807;stroke-linecap:round;stroke-linejoin:round;}
	.st29{clip-path:url(#SVGID_7_);}
	.st30{fill:#D64C47;}
	.st31{fill:#F5AC83;}
	.st32{opacity:0.5;fill:#EA9B7A;enable-background:new    ;}
	.st33{fill:#D88C71;}
	.st34{fill:#7FC2D6;}
	.st35{fill:none;stroke:#7FC2D6;stroke-width:1.3807;stroke-linecap:round;stroke-linejoin:round;}
	.st36{fill:none;stroke:#FFFFFF;stroke-width:0.6903;stroke-miterlimit:10;}
	.st37{fill-rule:evenodd;clip-rule:evenodd;fill:#00000F;}
	.st38{fill-rule:evenodd;clip-rule:evenodd;fill:#FFFFFF;}
</style>
<title>support</title>
<g id="Layer_2_1_">
	<g id="Layer_1-2">
		<g id="Layer_2-2">
			<g id="OBJECTS">
				<g>
					<path class="st0" d="M284.9,193.4h31.4c16.9,0.1,30.6,16.4,30.7,36.6l0,0c0,20.2-13.8,36.5-30.7,36.6H51.1
						c-27.3,0-49.7-26.7-49.7-59.3l0,0c0-32.6,22.4-59.3,49.7-59.3l0,0c11.6,0,21-11.2,21-25l0,0c0-13.8-9.4-25-21-25H25.8
						C13.7,97.9,4,86.3,3.9,71.9l0,0c0-14.4,9.8-26,21.9-26.1h32c4.7,0,8.5-4.6,8.5-10.1l0,0c0-5.6-3.8-10.1-8.5-10.1h-5.6
						c-3.2,0-5.9-3.1-5.9-7l0,0c0-3.9,2.6-7,5.9-7h37c7.8,0,8.7,11,28.3,11h45.6c4.2,0,7.6,4.1,7.7,9.1l0,0c0,5-3.4,9.1-7.7,9.1
						h-7.4c-6.1,0-11.1,5.9-11.1,13.2l0,0c0,7.3,5,13.2,11.1,13.2h22.1c29.9,0,34.1,9.3,39.4,27.8s32.4,20,32.4,20h37.2
						c9.2,0,16.7,8.9,16.7,19.9l0,0c0,11-7.5,19.9-16.7,19.9h-1.9c-8.9,0-16.1,8.6-16.1,19.2l0,0C268.8,184.8,276,193.3,284.9,193.4
						L284.9,193.4z"/>
					<rect x="53.2" y="-1.4" class="st1" width="396.3" height="170.4"/>
					<g>
						<defs>
							<rect id="SVGID_1_" x="169.4" y="-1.4" width="258.2" height="170.4"/>
						</defs>
						<clipPath id="SVGID_2_">
							<use xlink:href="#SVGID_1_"  style="overflow:visible;"/>
						</clipPath>
						<g class="st2">
							<g>
								
									<linearGradient id="SVGID_3_" gradientUnits="userSpaceOnUse" x1="-6642.293" y1="-711.2833" x2="-6642.293" y2="-941.9772" gradientTransform="matrix(-0.198 0.198 -0.7071 -0.7071 -1706.1542 689.5782)">
									<stop  offset="0" style="stop-color:#FFFFFF"/>
									<stop  offset="1" style="stop-color:#FFFFFF;stop-opacity:0"/>
								</linearGradient>
								<polygon class="st3" points="108.6,-119.3 115.2,-125.8 278.3,37.3 271.8,43.8 								"/>
								
									<linearGradient id="SVGID_4_" gradientUnits="userSpaceOnUse" x1="-4162.9561" y1="-523.1594" x2="-4162.9561" y2="-753.8464" gradientTransform="matrix(-0.4313 0.4313 -0.8768 -0.8768 -2171.3911 1233.2645)">
									<stop  offset="0" style="stop-color:#FFFFFF"/>
									<stop  offset="1" style="stop-color:#FFFFFF;stop-opacity:0"/>
								</linearGradient>
								<polygon class="st4" points="76.1,-96.2 90.4,-110.5 293.2,92.3 278.9,106.6 								"/>
								
									<linearGradient id="SVGID_5_" gradientUnits="userSpaceOnUse" x1="-3536.0222" y1="-564.6439" x2="-3536.0222" y2="-795.3638" gradientTransform="matrix(-0.7071 0.7071 -0.8768 -0.8768 -2841.7964 1886.0303)">
									<stop  offset="0" style="stop-color:#FFFFFF"/>
									<stop  offset="1" style="stop-color:#FFFFFF;stop-opacity:0"/>
								</linearGradient>
								<polygon class="st5" points="141.9,-107.5 165.3,-130.9 367.6,71.4 344.2,94.8 								"/>
							</g>
						</g>
					</g>
					<rect x="337.2" y="-12.2" class="st6" width="9.8" height="182.1"/>
					<rect x="53.2" y="168.6" class="st7" width="393.6" height="9.5"/>
					<g>
						<g>
							<path class="st8" d="M39.5,161.6c10.2,5.3,14.1,18,14.1,18s-12.6,4.1-22.8-1.3c-10.2-5.3-14.1-18-14.1-18
								S29.3,156.3,39.5,161.6z"/>
							<path class="st9" d="M30.7,178.3c10.2,5.3,22.8,1.3,22.8,1.3l0,0l-36.9-19.3C16.6,160.3,20.5,173,30.7,178.3z"/>
							<path class="st8" d="M75.9,164.5c-9.1,7-22.3,5.3-22.3,5.3s1.6-13.2,10.7-20.2s22.3-5.3,22.3-5.3S85,157.5,75.9,164.5z"/>
							<path class="st9" d="M75.9,164.5c9.1-7,10.7-20.2,10.7-20.2l-32.8,25.5C55.6,170,67.4,171,75.9,164.5z"/>
							<line class="st10" x1="53.6" y1="127.8" x2="53.6" y2="210.2"/>
							<polygon class="st11" points="39.5,195.9 43.9,262.8 65.3,262.8 69.2,195.9 							"/>
							<path class="st12" d="M66.9,127.8c0,16.2-13.3,29.4-13.3,29.4s-13.3-13.2-13.3-29.4s13.3-29.4,13.3-29.4
								S66.9,111.6,66.9,127.8z"/>
							<path class="st9" d="M53.6,98.5L53.6,98.5c0,0-13.3,13.2-13.3,29.4s13.3,29.4,13.3,29.4l0,0V98.5z"/>
						</g>
						<g>
							<path class="st13" d="M366.7,159.9c-1.5,1.9-4.2,2.2-6.1,0.7c0,0,0,0,0,0l0,0l0,0c-1.9-1.5-2.2-4.2-0.7-6.1c0,0,0,0,0,0l0,0
								l18.7-20c1.5-1.9,4.2-2.2,6.1-0.7l0,0c1.9,1.5,2.2,4.2,0.7,6.1L366.7,159.9z"/>
							<path class="st13" d="M338.1,156.1c-2-1.8-6.3-1.7-6.1-4l0,0c0.2-2.4,2.9-1.7,5.3-1.4l26.4,2.3c2.4,0.2,4.1,2.4,3.9,4.8l0,0
								c-0.2,2.4-2.4,4.1-4.8,3.9L338.1,156.1z"/>
							<path class="st13" d="M337.9,150.6c0,0-6.8-2.3-9.1-2.4c-2.3-0.1-10.5,8.3-9.5,8.5c1,0.2,9.7-2.7,12.2-2.1s6.6,1.5,6.6,1.5
								L337.9,150.6z"/>
						</g>
						<path class="st14" d="M388.8,103.4c0,3.3-2.6,5.9-5.9,5.9c0,0,0,0,0,0l0,0c-3.3,0-5.9-2.6-5.9-5.9v-10c0-3.3,2.6-5.9,5.9-5.9
							l0,0c1.6,0,3.1,0.6,4.2,1.8"/>
						<path class="st15" d="M385.6,109.3h5c0.8,0,1.4,0.6,1.4,1.4v17.6c0,0.8-0.6,1.4-1.4,1.4h-5c-0.8,0-1.4-0.6-1.4-1.4v-17.6
							C384.3,110,384.9,109.3,385.6,109.3z"/>
						<path class="st16" d="M352.8,178.1c0,0-27.4,2.4-32.1,5c-4.7,2.7,9,70.5,9,70.5h5.6l-2.9-49.8L352.8,178.1z"/>
						<path class="st13" d="M390.6,109.3h-5c-0.8,0-1.4,0.6-1.4,1.4V124c3.1,0,5.9-1.5,7.7-3.9v-9.3
							C392,110,391.4,109.3,390.6,109.3z"/>
						<g>
							<rect x="350.2" y="196.7" class="st17" width="73.1" height="14.2"/>
							<polygon class="st17" points="395.7,196.7 417.7,114.5 423.3,114.5 423.3,210.8 							"/>
							<rect x="350.2" y="203.7" class="st17" width="6.1" height="59.1"/>
							<rect x="417.1" y="203.7" class="st17" width="6.1" height="59.1"/>
							<rect x="350.2" y="210.8" class="st18" width="6.1" height="2.9"/>
							<rect x="417.1" y="210.8" class="st18" width="6.1" height="2.9"/>
						</g>
						<g>
							<rect x="311.8" y="157.6" class="st11" width="23.1" height="4.3"/>
							<rect x="281.9" y="157.6" class="st11" width="24.7" height="4.3"/>
							<path class="st11" d="M283.7,125.7c0,0-7.8,11.2-7.8,23.5c0,10.5,11.6,8.4,11.6,8.4l0,0v4.3h-16.6c0,0-3.2-19.7,11-41.2
								C283.5,122.3,283.7,125.7,283.7,125.7z"/>
							<rect x="281.9" y="84.7" class="st6" width="7.6" height="67.1"/>
							<rect x="281" y="84.7" class="st11" width="3.1" height="67.1"/>
							<rect x="311.8" y="155.8" class="st6" width="23.1" height="1.8"/>
						</g>
						<path class="st19" d="M396.2,176.2h-29.6c0,0-28.3,3.1-31.1,6.5c-2.8,3.4-38,70.9-38,70.9h7.4l37.4-56.9H385
							C385,196.7,400.9,195.5,396.2,176.2z"/>
						<path class="st20" d="M392,122.1l-7.8,4.5c0,0-11.7,10.7-12.8,21.2c-0.9,9-5.5,28.4-5.5,28.4s31.5,16.8,32.8,8.8
							C400.1,177,392,122.1,392,122.1z"/>
						<g>
							<g>
								<g>
									<rect x="362.5" y="168.6" class="st21" width="6.9" height="94.2"/>
									<rect x="362.5" y="170.5" class="st18" width="6.9" height="4.1"/>
								</g>
								<g>
									<rect x="235.7" y="168.6" class="st21" width="6.9" height="94.2"/>
									<rect x="235.7" y="170.5" class="st18" width="6.9" height="4.1"/>
								</g>
							</g>
							<rect x="226.5" y="161.5" class="st21" width="152" height="9"/>
						</g>
						<path class="st16" d="M304.8,253.6c0,0-3.7,8.9-5.3,8.9h-15.8c-5.4,0-2.6-3.4,2.2-4.1c5.1-0.7,11.5-4.8,11.5-4.8L304.8,253.6z
							"/>
						<polygon class="st16" points="300.5,253.6 303.7,249.3 307.7,249.3 303.7,256.1 						"/>
						<path class="st16" d="M335.1,252.3c0,0,0.9,8.7-0.6,8.9c-3.3,0.4-10.7,1.3-16.1,1.9s-3-3,1.7-4.3c5-1.3,9.4-5.8,9.4-5.8
							L335.1,252.3z"/>
						<path class="st15" d="M393.3,112.2c0,5.3-4.3,9.6-9.6,9.6l0,0c-5.3,0-9.6-4.3-9.6-9.6l0,0l0,0V99.5c0-5.3,4.3-9.6,9.6-9.6l0,0
							l0,0c5.3,0,9.6,4.3,9.6,9.6V112.2z"/>
						<path class="st15" d="M376.5,110.3c0,0.7-0.6,1.3-1.3,1.3h-1.1c-0.7,0-1.3-0.6-1.3-1.3l0,0c0-0.7,0.6-1.3,1.3-1.3l0,0h1.1
							C375.9,109,376.5,109.6,376.5,110.3C376.5,110.3,376.5,110.3,376.5,110.3z"/>
						<circle class="st22" cx="389.4" cy="101.3" r="10.6"/>
						<circle class="st22" cx="391.3" cy="112.7" r="10.6"/>
						<circle class="st22" cx="384.5" cy="98.5" r="8.8"/>
						<path class="st22" d="M387.4,99.2v4c2.6-4.1,1.4-9.5-2.6-12.2c-4.1-2.6-9.5-1.4-12.2,2.6c-0.9,1.4-1.4,3.1-1.4,4.8
							c0,0.3,0,0.5,0,0.8H387.4z"/>
						<path class="st14" d="M387.1,89.3c1.1,1.1,1.7,2.6,1.7,4.1v10"/>
						<path class="st16" d="M376.8,105.7c0,0.6-0.4,1.2-0.8,1.2c-0.4,0-0.8-0.5-0.8-1.2c0-0.6,0.4-1.2,0.8-1.2
							C376.4,104.5,376.8,105.1,376.8,105.7z"/>
						<path class="st6" d="M374.1,113.2c0.1,0.9,0.3,1.8,0.6,2.6c1.3-0.2,2.3-1.3,2.3-2.6H374.1z"/>
						<g>
							<path class="st15" d="M370.7,159.9c-1.5,1.9-4.2,2.2-6.1,0.7c0,0,0,0,0,0l0,0l0,0c-1.9-1.5-2.2-4.2-0.7-6.1c0,0,0,0,0,0l0,0
								l18.7-20c1.5-1.9,4.2-2.2,6.1-0.7c0,0,0,0,0,0l0,0c1.9,1.5,2.2,4.2,0.7,6.1c0,0,0,0,0,0l0,0L370.7,159.9z"/>
							<path class="st15" d="M342,156.1c-2-1.8-6.3-1.7-6.1-4l0,0c0.2-2.4,2.9-1.7,5.3-1.4l26.4,2.3c2.4,0.2,4.1,2.4,3.9,4.8l0,0
								c-0.2,2.4-2.4,4.1-4.8,3.9L342,156.1z"/>
							<path class="st15" d="M341.8,150.6c0,0-6.8-2.3-9.1-2.4c-2.3-0.1-10.5,8.3-9.5,8.5c1,0.2,9.7-2.7,12.2-2.1
								c2.6,0.5,6.6,1.5,6.6,1.5L341.8,150.6z"/>
						</g>
						<path class="st14" d="M388.6,106.9v7.1c0,2.3-4.8,1.5-8.3,1.5"/>
						<circle class="st16" cx="388.6" cy="106.9" r="4.7"/>
						<circle class="st17" cx="388.6" cy="106.9" r="1.8"/>
						<path class="st16" d="M382.6,115.6c0,0.7-0.5,1.2-1.2,1.2h-2.1c-0.6,0-1.2-0.5-1.2-1.2c0,0,0,0,0,0l0,0l0,0
							c0-0.6,0.5-1.2,1.2-1.2c0,0,0,0,0,0h2.1C382.1,114.5,382.6,115,382.6,115.6z"/>
						<g>
							<rect x="245.9" y="147.3" class="st19" width="11.2" height="14.2"/>
							<path class="st19" d="M257.2,149.6c-2.5,0-4.6,2-4.6,4.6s2,4.6,4.6,4.6c2.5,0,4.6-2,4.6-4.6l0,0
								C261.8,151.7,259.7,149.7,257.2,149.6L257.2,149.6z M257.2,156.8c-1.4,0-2.6-1.2-2.6-2.6c0-1.4,1.2-2.6,2.6-2.6
								c1.4,0,2.6,1.2,2.6,2.6C259.8,155.7,258.6,156.8,257.2,156.8C257.2,156.8,257.2,156.8,257.2,156.8z"/>
						</g>
					</g>
					<g>
						<path class="st6" d="M199.4,19.8h-43.6c-3.8,0-6.9,3.1-6.9,6.9l0,0l0,0v19.8l0,0v12.7l11.9-5.8h38.6c3.8,0,6.9-3.1,6.9-6.9
							V26.7C206.3,22.9,203.2,19.8,199.4,19.8z"/>
						<line class="st23" x1="155.5" y1="28.8" x2="192.9" y2="28.8"/>
						<line class="st23" x1="155.5" y1="34.7" x2="175.8" y2="34.7"/>
						<line class="st23" x1="155.5" y1="41.6" x2="167.9" y2="41.6"/>
					</g>
					<g>
						<path class="st6" d="M316.7,58.3h40.3c3.5,0,6.4,2.9,6.4,6.4v18.3l0,0v11.7l-11-5.3h-35.7c-3.5,0-6.4-2.9-6.4-6.4V64.7
							C310.3,61.1,313.2,58.3,316.7,58.3C316.7,58.3,316.7,58.3,316.7,58.3L316.7,58.3z"/>
						<line class="st23" x1="357.7" y1="68.3" x2="343.4" y2="68.3"/>
						<line class="st23" x1="357.7" y1="74.1" x2="332.7" y2="74.1"/>
						<line class="st23" x1="357.7" y1="80.8" x2="321.8" y2="80.8"/>
					</g>
					<g>
						<path class="st24" d="M298.3,123.1c0,0,33.3-0.2,33.1,0"/>
						<line class="st24" x1="292.8" y1="129.7" x2="313.7" y2="129.7"/>
						<g>
							<text transform="matrix(1 0 0 1 304.8269 117.361)" class="st6 st25 st26">24</text>
							<text transform="matrix(1 0 0 1 314.243 116.3326)" class="st6 st25 st26">/</text>
							<text transform="matrix(1 0 0 1 320.6697 117.361)" class="st6 st25 st26">7</text>
						</g>
						<path class="st27" d="M299.4,116.3c0-8.5,6.9-15.4,15.4-15.4s15.4,6.9,15.4,15.4"/>
						<polyline class="st28" points="328.1,112.5 330.3,116.5 331.4,111.7 						"/>
					</g>
					<g>
						<circle class="st6" cx="118.7" cy="98.5" r="43.9"/>
						<g>
							<defs>
								<circle id="SVGID_6_" cx="118.7" cy="98.5" r="43.9"/>
							</defs>
							<clipPath id="SVGID_7_">
								<use xlink:href="#SVGID_6_"  style="overflow:visible;"/>
							</clipPath>
							<g class="st29">
								<g>
									<g>
										<path class="st30" d="M110.6,103.1h14.6c5.7,0,10.3,4.6,10.3,10.3v35.5c0,5.7-4.6,10.3-10.3,10.3h-14.6
											c-5.7,0-10.3-4.6-10.3-10.3v-35.5C100.3,107.7,104.9,103.1,110.6,103.1z"/>
										<path class="st31" d="M115.1,84.9h5.7c0.9,0,1.6,0.7,1.6,1.6v20.3c0,0.9-0.7,1.6-1.6,1.6h-5.7c-0.9,0-1.6-0.7-1.6-1.6
											V86.5C113.5,85.6,114.2,84.9,115.1,84.9z"/>
										<path class="st32" d="M120.8,84.9h-5.7c-0.9,0-1.6,0.7-1.6,1.6c0,0,0,0,0,0v13.5c2.9,1.1,6,1.1,8.9,0V86.5
											C122.4,85.6,121.7,84.9,120.8,84.9z"/>
										<path class="st31" d="M130.4,86.9c0,6.8-5.5,12.4-12.4,12.4l0,0c-6.8,0-12.4-5.5-12.4-12.3c0,0,0,0,0,0v-8.3
											c0-6.9,5.6-12.4,12.4-12.4l0,0c6.8,0,12.4,5.6,12.4,12.4V86.9z"/>
										<path class="st33" d="M120.1,85.8c0,0.8-0.6,1.5-1.5,1.5h-1.3c-0.8,0-1.5-0.7-1.5-1.5l0,0l0,0c0-0.8,0.7-1.5,1.5-1.5l0,0
											h1.3C119.4,84.3,120.1,84.9,120.1,85.8L120.1,85.8L120.1,85.8L120.1,85.8z"/>
										<path class="st16" d="M113.5,80.8c0,0.7-0.4,1.3-0.9,1.3s-0.9-0.6-0.9-1.3c0-0.7,0.4-1.3,0.9-1.3S113.5,80.1,113.5,80.8z"
											/>
										<path class="st16" d="M124.2,80.8c0,0.7-0.4,1.3-0.9,1.3c-0.5,0-0.9-0.6-0.9-1.3c0-0.7,0.4-1.3,0.9-1.3
											C123.8,79.5,124.2,80.1,124.2,80.8z"/>
										<path class="st6" d="M117.9,93c2.1,0,3.9-1.7,3.9-3.9h-7.7C114.1,91.3,115.8,93,117.9,93z"/>
										<path class="st16" d="M109,69.3c0,5.3,18.8,13.8,28.2,3.1c-2.4,1.1-6.4-9.4-17.1-9.4S109,69.3,109,69.3z"/>
										<path class="st16" d="M132,82.3c0,1.1-0.9,2-2,2l0,0l0,0c-1.1,0-2-0.9-2-2c0,0,0,0,0,0l0,0v-6.6c0-1.1,0.9-2,2-2l0,0
											c1.1,0,2,0.9,2,2v0l0,0V82.3z"/>
										<path class="st16" d="M107.9,82.8c0,1.1-0.9,2-2,2l0,0c-1.1,0-2-0.9-2-2v0l0,0v-6.6c0-1.1,0.9-2,2-2h0l0,0
											c1.1,0,2,0.9,2,2c0,0,0,0,0,0l0,0V82.8z"/>
										<path class="st31" d="M133.2,83.7c0,1.6-1.3,2.8-2.8,2.8c-1.6,0-2.8-1.3-2.8-2.8c0-1.6,1.3-2.8,2.8-2.8c0,0,0,0,0,0l0,0
											C131.9,80.9,133.2,82.1,133.2,83.7C133.2,83.7,133.2,83.7,133.2,83.7z"/>
										<path class="st31" d="M108.4,83.7c0,1.6-1.3,2.8-2.8,2.8s-2.8-1.3-2.8-2.8c0-1.6,1.3-2.8,2.8-2.8S108.4,82.1,108.4,83.7
											C108.4,83.7,108.4,83.7,108.4,83.7z"/>
										<path class="st16" d="M112,73.5c0,0-3.5,4-6.1,4c-2-2-2-1.5-2-1.5s1.3-9.9,7.9-9C115.6,69.9,112,73.5,112,73.5z"/>
									</g>
									<path class="st30" d="M92.9,140.4c-0.9,1.8-3.1,2.5-4.9,1.5l0,0c-1.8-0.9-2.5-3.1-1.5-4.9l15.4-29.2
										c0.9-1.8,3.1-2.5,4.9-1.5l0,0c1.8,0.9,2.5,3.1,1.5,4.9L92.9,140.4z"/>
									<path class="st30" d="M143,140.7c0.9,1.8,3.1,2.5,4.9,1.5l0,0c1.8-0.9,2.5-3.1,1.5-4.9l-15.4-29.2
										c-0.9-1.8-3.1-2.5-4.9-1.5l0,0c-1.8,0.9-2.5,3.1-1.5,4.9L143,140.7z"/>
								</g>
							</g>
						</g>
					</g>
					<g>
						<polygon class="st6" points="381.1,56.5 370.7,56.5 370.7,44 377,44 381.1,49.3 						"/>
						<polygon class="st34" points="377,44 377,49.3 381.1,49.3 						"/>
					</g>
					<g>
						<path class="st6" d="M375.7,22c-2.3-2.5-3.6-7.1-3.6-7.1c0-0.2,0.1-0.4,0.2-0.6c0.1-0.2,0.2-0.3,0.3-0.4l1.8-1.8
							c0.4-0.4,1-0.4,1.3-0.1c0,0,0,0,0,0c0.1,0.1,0.2,0.2,0.2,0.3l1.5,2.8c0.1,0.2,0.1,0.5,0.1,0.7c0,0.2-0.2,0.5-0.3,0.6l-0.6,0.6
							c0,0.2,0.1,0.4,0.2,0.6c0.2,0.3,0.4,0.5,0.6,0.8c0.3,0.3,0.5,0.6,0.8,0.9c0.3,0.3,0.7,0.6,1.1,0.9c0.3,0.2,0.6,0.4,0.8,0.5
							c0.1,0.1,0.3,0.2,0.5,0.2l0.7-0.7c0.2-0.2,0.5-0.4,0.8-0.3c0.2,0,0.4,0,0.5,0.1l0.1,0.1l2.7,1.5c0.1,0.1,0.2,0.2,0.3,0.3
							c0.1,0.1,0.2,0.3,0.2,0.4c0.1,0.3,0,0.6-0.3,0.8l-1.8,1.8c-0.1,0.1-0.3,0.2-0.4,0.3C383.1,25.5,378,24.4,375.7,22z"/>
						<g>
							<path class="st6" d="M390.3,24.4c0,0.6-0.5,1.2-1.2,1.2S388,25,388,24.4c0-0.6,0.5-1.2,1.2-1.2l0,0
								C389.8,23.2,390.3,23.7,390.3,24.4z"/>
							<path class="st6" d="M394.7,24.4c0,0.6-0.5,1.2-1.2,1.2s-1.2-0.5-1.2-1.2c0-0.6,0.5-1.2,1.2-1.2l0,0
								C394.1,23.2,394.7,23.7,394.7,24.4z"/>
							<path class="st6" d="M399,24.4c0,0.6-0.5,1.2-1.2,1.2c-0.6,0-1.2-0.5-1.2-1.2c0-0.6,0.5-1.2,1.2-1.2l0,0
								C398.5,23.2,399,23.7,399,24.4z"/>
						</g>
					</g>
					<g>
						<path class="st34" d="M169,91.9c-2.3-2.5-3.6-7.1-3.6-7.1c0-0.2,0.1-0.4,0.2-0.5c0.1-0.2,0.2-0.3,0.3-0.5l1.8-1.8
							c0.4-0.4,1-0.4,1.3-0.1c0,0,0,0,0,0c0.1,0.1,0.2,0.2,0.2,0.3l1.5,2.8c0.1,0.2,0.2,0.5,0.1,0.7c0,0.2-0.2,0.5-0.3,0.6l-0.6,0.6
							c0,0.2,0.1,0.4,0.2,0.6c0.2,0.3,0.4,0.5,0.6,0.8c0.3,0.3,0.5,0.6,0.8,0.9c0.3,0.4,0.7,0.7,1.1,1c0.3,0.2,0.6,0.4,0.8,0.5
							c0.2,0.1,0.3,0.2,0.5,0.2l0.7-0.8c0.2-0.2,0.5-0.3,0.8-0.3c0.2,0,0.4,0,0.5,0.1L176,90l2.7,1.5c0.1,0.1,0.2,0.2,0.3,0.3
							c0.1,0.1,0.2,0.3,0.2,0.4c0.1,0.3,0,0.6-0.3,0.9l-1.8,1.8c-0.1,0.1-0.3,0.2-0.4,0.3C176.4,95.4,171.3,94.3,169,91.9z"/>
						<g>
							<path class="st34" d="M183.6,94.3c0,0.6-0.5,1.2-1.2,1.2c-0.6,0-1.2-0.5-1.2-1.2c0-0.6,0.5-1.2,1.2-1.2l0,0l0,0
								C183.1,93.1,183.6,93.6,183.6,94.3z"/>
							<path class="st34" d="M188,94.3c0,0.6-0.5,1.2-1.2,1.2c-0.6,0-1.2-0.5-1.2-1.2c0-0.6,0.5-1.2,1.2-1.2l0,0l0,0
								C187.5,93.1,188,93.6,188,94.3z"/>
							<path class="st34" d="M192.4,94.3c0,0.6-0.5,1.2-1.2,1.2c-0.6,0-1.2-0.5-1.2-1.2c0-0.6,0.5-1.2,1.2-1.2l0,0l0,0
								C191.9,93.1,192.4,93.6,192.4,94.3z"/>
						</g>
					</g>
					<path class="st6" d="M407.2,52.4l-0.9-0.5l-0.1,0c0-0.2,0-0.4,0-0.6c0-0.2,0-0.4,0-0.6h0l0.9-0.5c0.4-0.2,0.6-0.7,0.5-1.1
						l-0.9-1.6c-0.3-0.4-0.8-0.4-1.2-0.2l-0.9,0.5l0,0c-0.3-0.3-0.7-0.5-1.1-0.7v-1c0-0.5-0.3-1-0.7-1H401c-0.5,0.1-0.8,0.5-0.7,1v1
						c-0.4,0.2-0.8,0.4-1.2,0.7l-0.8-0.5c-0.4-0.3-0.9-0.2-1.2,0.2l-0.9,1.6c-0.2,0.4,0,0.9,0.5,1.1l0.9,0.5c0,0.2,0,0.4,0,0.5
						c0,0.3,0,0.5,0.1,0.8l-0.8,0.5c-0.4,0.2-0.6,0.7-0.5,1.1l0.9,1.6c0.3,0.4,0.8,0.4,1.2,0.2l0.8-0.5l0.1,0
						c0.3,0.2,0.7,0.4,1.1,0.6v1.1c-0.1,0.5,0.3,0.9,0.7,1h1.8c0.5-0.1,0.8-0.5,0.7-1v-1.1c0.4-0.2,0.7-0.4,1-0.6l0.1,0.1l0.9,0.5
						c0.4,0.3,0.9,0.2,1.2-0.2l0.9-1.6C407.9,53.1,407.6,52.6,407.2,52.4C407.2,52.4,407.2,52.4,407.2,52.4z M401.9,53.2
						c-1.1,0-2-0.9-2-2c0-1.1,0.9-2,2-2s2,0.9,2,2v0l0,0C403.8,52.3,402.9,53.2,401.9,53.2z"/>
					<path class="st6" d="M408.8,21h-2v-2.2c0-2.2,2.2-2.1,2.2-3.2c0-0.8-0.6-1.1-1.2-1.1c-0.6-0.1-1.2,0.4-1.3,1c0,0,0,0,0,0
						c0,0.1,0,0.2,0,0.4h-1.9c0-2.1,1.3-3.1,3.2-3.1c1.6,0,3.1,0.9,3.1,2.8s-2.2,2.2-2.2,3.2V21z M407.9,21.8c0.7,0,1.3,0.6,1.3,1.3
						c0,0.7-0.6,1.3-1.3,1.3c-0.7,0-1.3-0.6-1.3-1.3C406.5,22.4,407.1,21.8,407.9,21.8C407.9,21.8,407.9,21.8,407.9,21.8z"/>
					<line class="st24" x1="357.7" y1="31.1" x2="438.4" y2="31.1"/>
					<line class="st24" x1="375" y1="35.2" x2="455.7" y2="35.2"/>
					<line class="st24" x1="412.3" y1="61.3" x2="463.7" y2="61.3"/>
					<line class="st24" x1="420.2" y1="90.8" x2="452.7" y2="90.8"/>
					<line class="st24" x1="403.7" y1="86.3" x2="452.7" y2="86.3"/>
					<line class="st24" x1="389.1" y1="66" x2="455.7" y2="66"/>
					<g>
						<path class="st6" d="M409.1,74.1h7c0.6,0,1,0.5,1,1v7c0,0.6-0.5,1-1,1h-7c-0.6,0-1-0.5-1-1v-7
							C408.1,74.5,408.6,74.1,409.1,74.1z"/>
						<polyline class="st35" points="407.8,75.4 412.7,80.8 421.2,71 						"/>
					</g>
					<g>
						<path class="st36" d="M242.6,129.7c0,5.7-4.6,10.4-10.4,10.4c-5.7,0-10.4-4.6-10.4-10.4c0-5.7,4.6-10.4,10.4-10.4
							C237.9,119.3,242.6,124,242.6,129.7L242.6,129.7z"/>
						<line class="st36" x1="232.2" y1="119.4" x2="232.2" y2="140"/>
						<line class="st36" x1="221.9" y1="129.7" x2="242.6" y2="129.7"/>
						<path class="st36" d="M226,121.5c0,0,6.3,5,12.5,0"/>
						<path class="st36" d="M238.5,137.8c0,0-6.3-5-12.5,0"/>
						<path class="st36" d="M230.8,119.5c0,0-9.2,10.2-0.7,20.4"/>
						<path class="st36" d="M233.2,119.5c0,0,9.2,10.2,0.7,20.4"/>
					</g>
					<line class="st24" x1="245.9" y1="121.8" x2="269.2" y2="121.8"/>
					<line class="st24" x1="244.8" y1="126.9" x2="260.4" y2="126.9"/>
					<line class="st24" x1="204.1" y1="137.8" x2="219.7" y2="137.8"/>
					<line class="st24" x1="224.5" y1="144.3" x2="240" y2="144.3"/>
					<line class="st24" x1="293.5" y1="94.3" x2="318.4" y2="94.3"/>
					<line class="st24" x1="293.1" y1="89.4" x2="305.6" y2="89.4"/>
					<path class="st6" d="M224.5,76.5c0,7-5.7,12.7-12.7,12.6c-7,0-12.7-5.7-12.6-12.7c0-7,5.7-12.7,12.7-12.6
						C218.9,63.8,224.5,69.5,224.5,76.5L224.5,76.5z"/>
					<path class="st34" d="M212.8,78.7h-1.9v-2.3c0-2.2,2.2-2.1,2.2-3.2c0-0.8-0.6-1.1-1.2-1.1c-0.6-0.1-1.2,0.4-1.3,1c0,0,0,0,0,0
						c0,0.1,0,0.2,0,0.4h-1.9c0-2.1,1.4-3.1,3.2-3.1c1.6,0,3.1,0.9,3.1,2.8c0,1.9-2.2,2.2-2.2,3.2L212.8,78.7z M211.9,79.5
						c0.7,0,1.3,0.6,1.3,1.3c0,0.7-0.6,1.3-1.3,1.3c-0.7,0-1.3-0.6-1.3-1.3C210.6,80.1,211.1,79.5,211.9,79.5z"/>
				</g>
				<path class="st37" d="M431.6,267.8H23.5c-1.6,0-2.8-1.1-2.8-2.5l0,0c0-1.4,1.3-2.5,2.8-2.5h408.1c1.6,0,2.8,1.1,2.8,2.5l0,0
					C434.4,266.7,433.1,267.8,431.6,267.8z"/>
				<path class="st37" d="M445.6,267.8h-5.4c-1.4,0-2.6-1.2-2.6-2.7l0,0c0-1.5,1.2-2.7,2.6-2.7h5.4c1.5,0,2.7,1.2,2.7,2.7l0,0
					C448.2,266.6,447,267.8,445.6,267.8z"/>
				<path class="st37" d="M15.1,267.8H3.3c-1.1,0-1.9-1.2-1.9-2.7h0c0-1.5,0.9-2.7,1.9-2.7h11.7c1.1,0,1.9,1.2,1.9,2.7l0,0
					C17,266.6,16.1,267.8,15.1,267.8z"/>
			</g>
		</g>
	</g>
</g>
<path class="st38" d="M102.6,25.2c3.2-3.3,8.5-3.3,11.8,0c0,0,0,0,0,0c3.3,3.3,3.3,8.6,0,11.8c0,0,0,0,0,0c-3.2,3.3-8.5,3.3-11.8,0
	c0,0,0,0,0,0C99.3,33.7,99.3,28.5,102.6,25.2C102.5,25.2,102.6,25.2,102.6,25.2z M105.6,24c-3.9,1.6-5.7,6.1-4.1,9.9
	c1.6,3.9,6.1,5.7,9.9,4.1c0.9-0.4,1.7-0.9,2.4-1.6c0.7-0.7,1.3-1.5,1.7-2.5c1.6-3.9-0.2-8.3-4.1-9.9C109.5,23.3,107.4,23.3,105.6,24
	L105.6,24z M104.6,17.9c-0.5,0.2-1,0.3-1.5,0.6c-0.5,0.2-1,0.5-1.5,0.7c-0.5,0.3-0.9,0.6-1.4,0.9c-0.4,0.3-0.9,0.7-1.3,1.1
	c-0.1,0.1-0.3,0.2-0.5,0.2c-0.2,0-0.4,0-0.6-0.1c-1.2-0.7-2.5-1.4-3.7-2.2c-0.1,0-0.1,0-0.2-0.1c-0.1,0-0.1,0-0.2,0
	c-0.1,0-0.1,0-0.2,0.1c-0.1,0-0.1,0.1-0.1,0.2c-0.9,1.4-1.8,3.1-2.6,4.5c0,0.1-0.1,0.1-0.1,0.2c0,0.1,0,0.1,0,0.2
	c0,0.1,0,0.1,0.1,0.2c0,0.1,0.1,0.1,0.2,0.1c1.1,0.7,2.5,1.5,3.7,2.1c0.2,0.1,0.3,0.2,0.4,0.4c0,0.1,0,0.1,0.1,0.2h0.1l-0.1,0.3
	C95.1,28,95,28.2,95,28.5c0,0.2-0.1,0.5-0.1,0.8s-0.1,0.6-0.1,0.8c0,0.3,0,0.6,0,0.8c0,0.3,0,0.6,0,0.8c0,0.3,0,0.6,0.1,0.8
	c0,0.3,0.1,0.6,0.1,0.8c0.1,0.3,0.1,0.6,0.2,0.8c0.1,0.4-0.1,0.8-0.5,1l-3.3,1.9l0,0L91,37.4c-0.1,0-0.1,0.1-0.2,0.1
	c0,0.1-0.1,0.1-0.1,0.2c0,0.1,0,0.1,0,0.2c0,0.1,0,0.1,0.1,0.2l2.4,4.2l0,0l0.2,0.3c0,0.1,0.1,0.1,0.1,0.2c0.1,0,0.1,0.1,0.2,0.1
	c0.1,0,0.1,0,0.2,0c0.1,0,0.1,0,0.2-0.1c1.2-0.7,2.5-1.4,3.7-2.1c0.3-0.2,0.8-0.1,1,0.1l0,0c0.4,0.4,0.8,0.8,1.3,1.2
	c0.9,0.7,1.9,1.2,2.9,1.7c0.5,0.2,1,0.4,1.6,0.6c0.2,0.1,0.3,0.2,0.5,0.3c0.1,0.2,0.2,0.3,0.2,0.5v4.2c0,0.1,0,0.1,0,0.2
	c0,0.1,0.1,0.1,0.1,0.2c0,0.1,0.1,0.1,0.2,0.1c0.1,0,0.1,0,0.2,0h5.2c0.1,0,0.1,0,0.2,0c0.1,0,0.1-0.1,0.2-0.1
	c0-0.1,0.1-0.1,0.1-0.2c0-0.1,0-0.1,0-0.2v-4.3c0-0.2,0.1-0.4,0.2-0.6c0.1-0.2,0.3-0.3,0.5-0.3c0.5-0.2,1-0.3,1.5-0.6
	c0.5-0.2,1-0.5,1.5-0.7c0.5-0.3,0.9-0.6,1.4-0.9c0.4-0.3,0.9-0.7,1.3-1.1c0.1-0.1,0.3-0.2,0.5-0.2c0.2,0,0.4,0,0.6,0.1l3.7,2.1
	c0.1,0,0.1,0.1,0.2,0.1c0.1,0,0.1,0,0.2,0c0.1,0,0.1-0.1,0.2-0.1c0.1,0,0.1-0.1,0.1-0.2c0.9-1.5,1.7-3,2.6-4.5
	c0-0.1,0.1-0.1,0.1-0.2c0-0.1,0-0.1,0-0.2c0-0.1-0.1-0.2-0.2-0.3l-3.7-2.1c-0.2-0.1-0.3-0.2-0.4-0.4c0,0,0-0.1-0.1-0.1h-0.1l0.1-0.4
	c0.1-0.3,0.1-0.6,0.2-0.8c0-0.2,0.1-0.6,0.1-0.8c0-0.3,0.1-0.6,0.1-0.8s0-0.6,0-0.8s0-0.6,0-0.8s0-0.6-0.1-0.8
	c0-0.3-0.1-0.6-0.1-0.8s-0.1-0.5-0.2-0.8c-0.1-0.4,0.1-0.8,0.4-1l3.7-2.1c0.1-0.1,0.2-0.2,0.2-0.3c0-0.1,0-0.1,0-0.2
	c0-0.1,0-0.1-0.1-0.2c-0.9-1.3-1.8-3.1-2.6-4.5c0-0.1-0.1-0.1-0.1-0.2c-0.1,0-0.1-0.1-0.2-0.1c-0.1,0-0.1,0-0.2,0
	c-0.1,0-0.1,0-0.2,0.1l-3.7,2.1c-0.2,0.1-0.4,0.1-0.6,0.1c-0.2,0-0.4-0.1-0.5-0.2c-0.4-0.4-0.8-0.7-1.3-1.1
	c-0.4-0.3-0.9-0.6-1.4-0.9c-0.5-0.3-1-0.5-1.5-0.7c-0.5-0.2-1-0.4-1.6-0.6c-0.2,0-0.3-0.2-0.5-0.3c-0.1-0.2-0.2-0.3-0.2-0.5v-4.3
	c0-0.1,0-0.1,0-0.2c-0.1-0.1-0.2-0.2-0.3-0.3c-0.1,0-0.1,0-0.2,0h-5.2c-0.1,0-0.1,0-0.2,0c-0.1,0-0.1,0.1-0.2,0.1
	c-0.1,0.1-0.2,0.2-0.2,0.4v4.3c0,0.2-0.1,0.4-0.2,0.6c-0.1,0.2-0.3,0.3-0.5,0.3L104.6,17.9z M102.8,17.7c-1.1,0.5-2.1,1.1-3,1.8
	c-0.5,0.4-0.9,0.7-1.3,1.1c0,0,0,0-0.1,0c0,0,0,0-0.1,0l-3.7-2.2c-0.1-0.1-0.3-0.1-0.5-0.1c-0.2,0-0.3,0-0.5,0
	c-0.2,0-0.3,0.1-0.5,0.2c-0.1,0.1-0.2,0.2-0.3,0.4c-0.9,1.5-1.8,3-2.6,4.5C90.1,23.6,90,23.8,90,24c0,0.2,0,0.3,0,0.5
	c0,0.2,0.1,0.3,0.2,0.5c0.1,0.1,0.2,0.3,0.4,0.3c1.2,0.7,2.5,1.4,3.7,2.1c0,0,0,0,0,0c0,0,0,0,0,0.1l-0.1,0.3l0,0l-0.1,0.5
	c-0.1,0.3-0.1,0.6-0.1,0.9c0,0.3-0.1,0.6-0.1,0.9s0,0.6,0,0.9s0,0.6,0,0.9c0,0.3,0,0.6,0.1,0.9c0,0.3,0.1,0.6,0.1,0.9
	s0.1,0.6,0.2,0.9c0,0,0,0,0,0.1c0,0,0,0-0.1,0.1c-1.4,0.7-2.7,1.6-4.1,2.4l0,0.1l0,0.1c-0.1,0.1-0.2,0.3-0.2,0.5
	c0,0.2-0.1,0.3,0,0.5c0,0.2,0.1,0.3,0.2,0.5l2.8,4.9l0.1,0l0.1,0.1c0.1,0.1,0.3,0.2,0.5,0.2c0.2,0,0.3,0.1,0.5,0
	c0.2,0,0.3-0.1,0.5-0.2c1.2-0.7,2.5-1.4,3.7-2.1c0,0,0,0,0.1,0l0.1,0c0.9,0.8,1.8,1.5,2.8,2.1c0.5,0.3,1,0.6,1.6,0.8
	c0.6,0.2,1.1,0.4,1.7,0.6c0,0,0.1,0.1,0.1,0.1v4.3c0,0.3,0.1,0.7,0.4,0.9c0.1,0.1,0.3,0.2,0.4,0.3c0.2,0.1,0.3,0.1,0.5,0.1h5.2
	c0.2,0,0.3,0,0.5-0.1c0.2-0.1,0.3-0.2,0.4-0.3c0.1-0.1,0.2-0.3,0.3-0.4c0.1-0.2,0.1-0.3,0.1-0.5v-4.3c0,0,0,0,0-0.1c0,0,0,0,0.1,0
	l0,0c0.6-0.2,1.1-0.3,1.6-0.6c0.5-0.2,1.1-0.5,1.6-0.8c0.5-0.3,1-0.6,1.5-1c0.5-0.3,0.9-0.7,1.3-1.1c0,0,0,0,0.1,0c0,0,0,0,0.1,0
	l3.7,2.1c0.1,0.1,0.3,0.1,0.5,0.2c0.2,0,0.3,0,0.5,0c0.2,0,0.3-0.1,0.5-0.2c0.1-0.1,0.2-0.2,0.3-0.4c1-1.6,1.9-3.3,2.8-4.9l-0.1,0
	c0,0,0-0.1,0-0.1c0-0.3,0-0.7-0.3-1c-0.1-0.1-0.2-0.3-0.4-0.3l-3.7-2.1c0,0,0,0,0-0.1c0,0,0,0,0-0.1l0.1-0.4l0,0
	c0-0.2,0.1-0.3,0.1-0.5c0.1-0.3,0.1-0.6,0.1-0.9c0-0.3,0.1-0.6,0.1-0.9c0-0.3,0-0.6,0-0.9s0-0.6,0-0.9s0-0.6-0.1-0.9
	c0-0.3-0.1-0.6-0.1-0.9s-0.1-0.6-0.2-0.9c0,0,0,0,0-0.1c0,0,0,0,0-0.1l3.7-2.1c0.1-0.1,0.3-0.2,0.4-0.3c0.2-0.3,0.3-0.6,0.3-1
	c0-0.2-0.1-0.3-0.2-0.5c-0.9-1.6-1.9-3.3-2.8-4.9l-0.1,0l-0.1-0.1c-0.1-0.1-0.3-0.2-0.5-0.2c-0.2,0-0.3-0.1-0.5,0
	c-0.2,0-0.3,0.1-0.5,0.2l-0.3,0.2l0,0l-3.4,2c0,0,0,0-0.1,0c0,0,0,0-0.1,0l0,0c-0.4-0.4-0.9-0.8-1.3-1.1c-0.5-0.4-1-0.7-1.5-1
	c-1-0.6-2.1-1-3.2-1.4c0,0,0,0-0.1,0c0,0,0,0,0-0.1v-4.3c0-0.2,0-0.3-0.1-0.5c-0.1-0.2-0.2-0.3-0.3-0.4c-0.1-0.1-0.3-0.2-0.4-0.3
	c-0.2-0.1-0.3-0.1-0.5-0.1h-5.3c-0.2,0-0.3,0-0.5,0.1c-0.2,0.1-0.3,0.2-0.4,0.3c-0.2,0.2-0.4,0.6-0.4,0.9v4.3c0,0,0,0,0,0.1
	c0,0,0,0-0.1,0l0,0C103.9,17.3,103.4,17.5,102.8,17.7L102.8,17.7z"/>
<path class="st38" d="M254.4,41.5c2.5-2.5,6.4-2.5,8.9,0c2.5,2.5,2.5,6.4,0,8.9c-2.5,2.5-6.4,2.5-8.9,0c-1.2-1.2-1.9-2.8-1.9-4.5
	C252.6,44.2,253.2,42.6,254.4,41.5L254.4,41.5z M255.8,35.2c-1.7,0.5-3.3,1.4-4.6,2.7c-0.1,0.1-0.3,0.1-0.5,0l-2.9-1.7l0,0
	c-0.2-0.1-0.4-0.1-0.5-0.1c-0.2,0.1-0.3,0.2-0.4,0.3l0,0l-2.1,3.6c-0.2,0.3-0.1,0.8,0.3,1c0,0,0,0,0,0l0,0l2.9,1.7
	c0.1,0.1,0.2,0.3,0.2,0.4l0,0c-0.1,0.4-0.2,0.9-0.2,1.3c-0.1,0.4-0.1,0.9-0.1,1.3c0,0.5,0,0.9,0.1,1.4c0.1,0.4,0.1,0.9,0.2,1.3
	c0,0.2,0,0.4-0.2,0.4l-2.9,1.7l0,0c-0.2,0.1-0.3,0.3-0.3,0.4c-0.1,0.2,0,0.4,0.1,0.5l2.1,3.6l0,0c0.1,0.2,0.3,0.3,0.4,0.3
	c0.2,0.1,0.4,0,0.6-0.1l0,0l2.9-1.6c0.1-0.1,0.3-0.1,0.5,0.1c0.7,0.6,1.4,1.2,2.2,1.6c0.8,0.5,1.6,0.8,2.5,1.1
	c0.2,0,0.3,0.2,0.3,0.4v3.4c0,0.4,0.3,0.7,0.7,0.7l0,0h4.1c0.4,0,0.7-0.3,0.7-0.7c0,0,0,0,0,0V57c0-0.2,0.1-0.3,0.3-0.4
	c0.9-0.3,1.7-0.6,2.5-1c0.8-0.5,1.5-1,2.2-1.7c0.1-0.1,0.3-0.1,0.5,0l2.9,1.7c0.2,0.1,0.4,0.1,0.5,0.1c0.2,0,0.3-0.2,0.4-0.3l0,0
	l2.1-3.6l0,0c0.1-0.2,0.1-0.4,0.1-0.5c0-0.2-0.2-0.3-0.3-0.4l-2.9-1.7c-0.1-0.1-0.2-0.3-0.2-0.4l0,0c0.1-0.4,0.2-0.9,0.3-1.3
	c0.1-0.5,0.1-0.9,0.1-1.4c0-0.5,0-0.9-0.1-1.3c-0.1-0.4-0.1-0.9-0.3-1.3c0-0.2,0-0.4,0.2-0.4l2.9-1.7c0.2-0.1,0.3-0.3,0.3-0.4
	c0.1-0.2,0-0.4-0.1-0.5l0,0l-2.1-3.6l0,0c-0.1-0.2-0.3-0.3-0.4-0.3c-0.2,0-0.4,0-0.6,0.1l0,0L267,38c-0.2,0.1-0.3,0.1-0.5-0.1
	c-1.3-1.3-2.9-2.2-4.6-2.7c-0.2,0-0.3-0.2-0.3-0.4v-3.4c0-0.2-0.1-0.4-0.2-0.5c-0.1-0.1-0.3-0.2-0.5-0.2h-4.1
	c-0.2,0-0.4,0.1-0.5,0.2c-0.1,0.1-0.2,0.3-0.2,0.5v3.4C256.1,35.1,255.9,35.2,255.8,35.2z"/>
<path class="st38" d="M96.3,223.9c0-0.6-0.5-1.1-1.1-1.1c-0.6,0-1.1,0.5-1.1,1.1c0,0,0,0,0,0v2.5h-2.5c-0.6,0-1.1,0.5-1.1,1.1
	s0.5,1.1,1.1,1.1h2.5v2.5c0,0.6,0.5,1.1,1.1,1.1c0.6,0,1.1-0.5,1.1-1.1c0,0,0,0,0,0v-2.5h2.5c0.6,0,1.1-0.5,1.1-1.1
	s-0.5-1.1-1.1-1.1h-2.5L96.3,223.9z"/>
<path class="st38" d="M150,190.7c0-0.6-0.5-1.1-1.1-1.1c-0.6,0-1.1,0.5-1.1,1.1c0,0,0,0,0,0v2.5h-2.5c-0.6,0-1.1,0.5-1.1,1.1
	s0.5,1.1,1.1,1.1h2.5v2.5c0,0.6,0.5,1.1,1.1,1.1c0.6,0,1.1-0.5,1.1-1.1c0,0,0,0,0,0v-2.5h2.5c0.6,0,1.1-0.5,1.1-1.1
	s-0.5-1.1-1.1-1.1H150L150,190.7z"/>
<path class="st38" d="M26.4,57.7c0-0.6-0.5-1.1-1.1-1.1c-0.6,0-1.1,0.5-1.1,1.1c0,0,0,0,0,0v2.5h-2.5c-0.6,0-1.1,0.5-1.1,1.1
	s0.5,1.1,1.1,1.1h2.5v2.5c0,0.6,0.5,1.1,1.1,1.1c0.6,0,1.1-0.5,1.1-1.1c0,0,0,0,0,0v-2.5h2.5c0.6,0,1.1-0.5,1.1-1.1
	s-0.5-1.1-1.1-1.1h-2.5L26.4,57.7z"/>
<path class="st38" d="M311.4,13.2c0-0.6-0.5-1.1-1.1-1.1c-0.6,0-1.1,0.5-1.1,1.1c0,0,0,0,0,0v2.5h-2.5c-0.6,0-1.1,0.5-1.1,1.1
	s0.5,1.1,1.1,1.1h2.5v2.5c0,0.6,0.5,1.1,1.1,1.1c0.6,0,1.1-0.5,1.1-1.1c0,0,0,0,0,0v-2.5h2.5c0.6,0,1.1-0.5,1.1-1.1
	s-0.5-1.1-1.1-1.1h-2.5L311.4,13.2z"/>
</svg>
