<?xml version="1.0" encoding="utf-8"?>
<!-- Generator: Adobe Illustrator 24.0.1, SVG Export Plug-In . SVG Version: 6.00 Build 0)  -->
<svg version="1.1" id="Capa_1" xmlns="http://www.w3.org/2000/svg" xmlns:xlink="http://www.w3.org/1999/xlink" x="0px" y="0px"
	 viewBox="0 0 512 512" style="enable-background:new 0 0 512 512;" xml:space="preserve">
<path d="M502.3,417.4h-10.1V183.5c25.5-49.1,19.1-124.2,18.8-127.8c-0.4-3.9-3.6-6.9-7.6-6.9c-49.9,0-70.8-18.7-70.9-18.8
	c-2.9-2.8-7.5-2.8-10.4,0c-0.2,0.2-20.4,18.8-70.9,18.8c-3.9,0-7.2,3-7.6,6.9c-0.2,2.2-2.6,30.6,1.1,63.5H138.7
	c-4.2,0-7.6,3.4-7.6,7.6s3.4,7.6,7.6,7.6h208.2c1,5.7,2.2,11.4,3.6,17H62.8c-7,0-13,5.9-13,13v253h-17v-253c0-16.5,13.5-30,30-30
	h45.5c4.2,0,7.6-3.4,7.6-7.6s-3.4-7.6-7.6-7.6H62.8c-24.9,0-45.2,20.3-45.2,45.2v253H7.6c-4.2,0-7.6,3.4-7.6,7.6v16.1
	C0,464.8,19.3,484,42.9,484h346.4c4.2,0,7.6-3.4,7.6-7.6s-3.4-7.6-7.6-7.6H42.9c-15.3,0-27.8-12.4-27.8-27.7v-8.6h479.6v8.6
	c0,15.3-12.4,27.7-27.8,27.7h-47.2c-4.2,0-7.6,3.4-7.6,7.6s3.4,7.6,7.6,7.6H467c23.7,0,42.9-19.3,42.9-42.9V425
	C509.9,420.8,506.5,417.4,502.3,417.4L502.3,417.4z M477.1,205.1v212.3h-17V218C466.3,214.7,472,210.4,477.1,205.1L477.1,205.1z
	 M358.3,63.9c37.9-1.3,59.8-12.6,69-18.8c9.2,6.2,31.1,17.6,69,18.8c1,19.5,1.8,76.9-18.2,113.9c-0.1,0.2-0.2,0.4-0.3,0.6
	c-3,5.5-6.5,10.5-10.5,14.9c-5.2,5.7-11,10-17.5,12.8c-0.3,0.1-0.5,0.2-0.8,0.3c-6.5,2.8-13.8,4.1-21.8,4.1
	c-16.3,0-29.4-5.7-40.1-17.3c-8.7-9.6-14.9-22.2-19.3-36c-0.1-0.3-0.2-0.7-0.3-1C356.8,121.5,357.5,79.9,358.3,63.9L358.3,63.9z
	 M65,166.6h290.1c4.9,13.9,11.7,26.7,20.9,36.8c13.5,14.8,30.8,22.3,51.3,22.3c6.2,0,12-0.7,17.6-2v193.7H65V166.6z"/>
<path d="M251.1,202.3c-40.9,0-74.2,33.3-74.2,74.2s33.3,74.2,74.2,74.2s74.2-33.3,74.2-74.2S292,202.3,251.1,202.3L251.1,202.3z
	 M251.1,335.6c-32.5,0-59-26.5-59-59s26.5-59,59-59c32.5,0,59,26.5,59,59S283.7,335.6,251.1,335.6L251.1,335.6z"/>
<path d="M267.5,256l-22.4,24.3l-10-12.5c-2.6-3.3-7.4-3.8-10.7-1.2c-3.3,2.6-3.8,7.4-1.2,10.7l15.6,19.4c1.4,1.7,3.4,2.8,5.7,2.8
	c0.1,0,0.2,0,0.3,0c2.1,0,4.1-0.9,5.6-2.4l28.4-30.8c2.8-3.1,2.7-7.9-0.4-10.7C275.2,252.7,270.4,252.9,267.5,256L267.5,256z"/>
<path d="M389,153.1h13v13c0,4.2,3.4,7.6,7.6,7.6h37.5c4.2,0,7.6-3.4,7.6-7.6v-13h13c4.2,0,7.6-3.4,7.6-7.6V108
	c0-4.2-3.4-7.6-7.6-7.6h-13v-13c0-4.2-3.4-7.6-7.6-7.6h-37.5c-4.2,0-7.6,3.4-7.6,7.6v13h-13c-4.2,0-7.6,3.4-7.6,7.6v37.5
	C381.4,149.7,384.8,153.1,389,153.1z M396.5,115.6h13c4.2,0,7.6-3.4,7.6-7.6v-13h22.3v13c0,4.2,3.4,7.6,7.6,7.6h13v22.3h-13
	c-4.2,0-7.6,3.4-7.6,7.6v13h-22.3v-13c0-4.2-3.4-7.6-7.6-7.6h-13V115.6z"/>
</svg>
